upcounter_t/result.vcd
$date
  Sun Feb  4 18:54:37 2024
$end
$version
  GHDL v0
$end
$timescale
  1 fs
$end
$scope module standard $end
$upscope $end
$scope module std_logic_1164 $end
$upscope $end
$scope module t_flipflop_tb $end
$var reg 1 ! clk $end
$var reg 1 " clr $end
$var reg 3 # q[2:0] $end
$scope module counter1 $end
$upscope $end
$upscope $end
$enddefinitions $end
#0
0!
1"
bUUU #
#10000000
0"
#30000000
1!
#60000000
0!
#90000000
1!
1"
#100000000
0"
#120000000
0!
#150000000
1!
#180000000
0!
1"
#190000000
0"
#210000000
1!
#240000000
0!
#270000000
1!
1"
#280000000
0"
#300000000
0!
#330000000
1!
#360000000
0!
1"
#370000000
0"
#390000000
1!
#420000000
0!
#450000000
1!
1"
#460000000
0"
#480000000
0!
#510000000
1!
#540000000
0!
1"
#550000000
0"
#570000000
1!
#600000000
0!
#630000000
1!
1"
#640000000
0"
#660000000
0!
#690000000
1!
#720000000
0!
1"
#730000000
0"
#750000000
1!
#780000000
0!
#810000000
1!
1"
#820000000
0"
#840000000
0!
#870000000
1!
#900000000
0!
1"
#910000000
0"
#930000000
1!
#960000000
0!
#990000000
1!
1"
#1000000000
0"
#1020000000
0!
#1050000000
1!
#1080000000
0!
1"
#1090000000
0"
#1110000000
1!
#1140000000
0!
#1170000000
1!
1"
#1180000000
0"
#1200000000
0!
#1230000000
1!
#1260000000
0!
1"
#1270000000
0"
#1290000000
1!
#1320000000
0!
#1350000000
1!
1"
#1360000000
0"
#1380000000
0!
#1410000000
1!
#1440000000
0!
1"
#1450000000
0"
#1470000000
1!
#1500000000
0!
#1530000000
1!
1"
#1540000000
0"
#1560000000
0!
#1590000000
1!
#1620000000
0!
1"
#1630000000
0"
#1650000000
1!
#1680000000
0!
#1710000000
1!
1"
#1720000000
0"
#1740000000
0!
#1770000000
1!
#1800000000
0!
1"
#1810000000
0"
#1830000000
1!
#1860000000
0!
#1890000000
1!
1"
#1900000000
0"
#1920000000
0!
#1950000000
1!
#1980000000
0!
1"
#1990000000
0"
#2010000000
1!
#2040000000
0!
#2070000000
1!
1"
#2080000000
0"
#2100000000
0!
#2130000000
1!
#2160000000
0!
1"
#2170000000
0"
#2190000000
1!
#2220000000
0!
#2250000000
1!
1"
#2260000000
0"
#2280000000
0!
#2310000000
1!
#2340000000
0!
1"
#2350000000
0"
#2370000000
1!
#2400000000
0!
#2430000000
1!
1"
#2440000000
0"
#2460000000
0!
#2490000000
1!
#2520000000
0!
1"
#2530000000
0"
#2550000000
1!
#2580000000
0!
#2610000000
1!
1"
#2620000000
0"
#2640000000
0!
#2670000000
1!
#2700000000
0!
1"
#2710000000
0"
#2730000000
1!
#2760000000
0!
#2790000000
1!
1"
#2800000000
0"
#2820000000
0!
#2850000000
1!
#2880000000
0!
1"
#2890000000
0"
#2910000000
1!
#2940000000
0!
#2970000000
1!
1"
#2980000000
0"
#3000000000
0!
#3030000000
1!
#3060000000
0!
1"
#3070000000
0"
#3090000000
1!
#3120000000
0!
#3150000000
1!
1"
#3160000000
0"
#3180000000
0!
#3210000000
1!
#3240000000
0!
1"
#3250000000
0"
#3270000000
1!
#3300000000
0!
#3330000000
1!
1"
#3340000000
0"
#3360000000
0!
#3390000000
1!
#3420000000
0!
1"
#3430000000
0"
#3450000000
1!
#3480000000
0!
#3510000000
1!
1"
#3520000000
0"
#3540000000
0!
#3570000000
1!
#3600000000
0!
1"
#3610000000
0"
#3630000000
1!
#3660000000
0!
#3690000000
1!
1"
#3700000000
0"
#3720000000
0!
#3750000000
1!
#3780000000
0!
1"
#3790000000
0"
#3810000000
1!
#3840000000
0!
#3870000000
1!
1"
#3880000000
0"
#3900000000
0!
#3930000000
1!
#3960000000
0!
1"
#3970000000
0"
#3990000000
1!
#4020000000
0!
#4050000000
1!
1"
#4060000000
0"
#4080000000
0!
#4110000000
1!
#4140000000
0!
1"
#4150000000
0"
#4170000000
1!
#4200000000
0!
#4230000000
1!
1"
#4240000000
0"
#4260000000
0!
#4290000000
1!
#4320000000
0!
1"
#4330000000
0"
#4350000000
1!
#4380000000
0!
#4410000000
1!
1"
#4420000000
0"
#4440000000
0!
#4470000000
1!
#4500000000
0!
1"
#4510000000
0"
#4530000000
1!
#4560000000
0!
#4590000000
1!
1"
#4600000000
0"
#4620000000
0!
#4650000000
1!
#4680000000
0!
1"
#4690000000
0"
#4710000000
1!
#4740000000
0!
#4770000000
1!
1"
#4780000000
0"
#4800000000
0!
#4830000000
1!
#4860000000
0!
1"
#4870000000
0"
#4890000000
1!
#4920000000
0!
#4950000000
1!
1"
#4960000000
0"
