bcd_7_counter/result.vcd
$date
  Sat Feb 10 19:04:58 2024
$end
$version
  GHDL v0
$end
$timescale
  1 fs
$end
$scope module standard $end
$upscope $end
$scope module std_logic_1164 $end
$upscope $end
$scope module numeric_std $end
$upscope $end
$scope module bcd_tb $end
$var reg 1 ! b0_tb $end
$var reg 1 " b1_tb $end
$var reg 1 # b2_tb $end
$var reg 1 $ b3_tb $end
$var reg 1 % a_tb $end
$var reg 1 & b_tb $end
$var reg 1 ' c_tb $end
$var reg 1 ( d_tb $end
$var reg 1 ) e_tb $end
$var reg 1 * f_tb $end
$var reg 1 + g_tb $end
$scope module uut $end
$var reg 1 , b0 $end
$var reg 1 - b1 $end
$var reg 1 . b2 $end
$var reg 1 / b3 $end
$var reg 1 0 a $end
$var reg 1 1 b $end
$var reg 1 2 c $end
$var reg 1 3 d $end
$var reg 1 4 e $end
$var reg 1 5 f $end
$var reg 1 6 g $end
$upscope $end
$upscope $end
$enddefinitions $end
#0
0!
0"
0#
0$
1%
1&
1'
1(
1)
1*
0+
0,
0-
0.
0/
10
11
12
13
14
15
06
#10000000
1!
1+
1,
16
#20000000
0!
1"
0%
0(
0)
0,
1-
00
03
04
#30000000
1!
1%
1(
1,
10
13
#40000000
0!
0"
1#
0'
1)
0*
0,
0-
1.
02
14
05
#50000000
1!
1*
1,
15
#60000000
0!
1"
0&
1'
0,
1-
01
12
#70000000
1!
1,
#80000000
0!
0"
0#
1$
0%
1&
0(
0)
0*
0+
0,
0-
0.
1/
00
11
03
04
05
06
#90000000
1!
1%
1(
1*
1+
1,
10
13
15
16
